{
    "event":
    {
        "id": 3,
        "title": "Interfind 2015",
        "start_at": "2017-04-30T10:49:32-07:00",
        "end_at": "2014-04-14T07:39:37-07:00",
        "location": "Williams Avenue, Missouri",
        "description":"Entry person must be 18 years old or older with a valid ID card Price are subject to availability No Camera / No Video Camera / No Audio / Visual Recorders Allowed Tickets are non-returnable, non-refundable and non-exchangeable Tickets are valid for date of show issued only Please use your full name in the credit card / debit card form to ensure successful payment. Ticket delivery only available in Thailand via Kerry Express. Elsewhere please choose 'Receive at Event'. Lost ticket is subject to the organizer's policy, Event Pop is not responsible for any lost ticket.",
        "cover": "picsum.photos/800/800/?image=23",
        "ticket_types":[
            {
                "id":4,
                "name":"Early Bird",
                "price":2000.00
            },
            {
                "id":5,
                "name":"Regular",
                "price":2500.00
            },
            {
                "id":6,
                "name":"VIP",
                "price":4000.00
            }
        ]
    }
}